UART/VCD/RX/RXshift.vcd
$date
	Wed May 27 11:02:35 2026
$end
$version
	Icarus Verilog
$end
$timescale
	1s
$end
$scope module test_tb $end
$var wire 10 ! RXrawbuff [9:0] $end
$var wire 8 " RXbuff [7:0] $end
$var wire 1 # RI $end
$var reg 1 $ RE $end
$var reg 1 % RIin $end
$var reg 1 & RX $end
$var reg 8 ' timerCurrentVal [7:0] $end
$var reg 8 ( timerInitVal [7:0] $end
$scope module uut $end
$var wire 1 $ RE $end
$var wire 1 % RI_irq $end
$var wire 1 & RX $end
$var wire 8 ) initTimer [7:0] $end
$var wire 8 * timer [7:0] $end
$var wire 8 + buffer [7:0] $end
$var wire 10 , RXrawbuff [9:0] $end
$var wire 1 - RX_ckt_ready $end
$var reg 1 # RI $end
$var reg 1 . RX_ckt_enable $end
$var reg 2 / state [1:0] $end
$scope module R0 $end
$var wire 1 & RX $end
$var wire 1 . enableIN $end
$var wire 8 0 timerCurrentVal [7:0] $end
$var wire 8 1 timerInitVal [7:0] $end
$var reg 8 2 RXbuff [7:0] $end
$var reg 10 3 RXrawbuff [9:0] $end
$var reg 8 4 counter [7:0] $end
$var reg 1 - ready $end
$var reg 8 5 smplngTime [7:0] $end
$upscope $end
$upscope $end
$scope begin $ivl_for_loop0 $end
$var integer 32 6 k [31:0] $end
$scope begin $ivl_for_loop1 $end
$var integer 32 7 j [31:0] $end
$scope begin $ivl_for_loop2 $end
$var integer 32 8 i [31:0] $end
$upscope $end
$upscope $end
$upscope $end
$upscope $end
$enddefinitions $end
$comment Show the parameter values. $end
$dumpall
$end
#0
$dumpvars
bx 8
bx 7
bx 6
bx 5
bx 4
bx 3
bx 2
bx 1
bx 0
b0 /
x.
x-
bx ,
bx +
bx *
bx )
bx (
bx '
x&
1%
1$
x#
bx "
bx !
$end
#10
b0 "
b0 +
b0 2
b0 !
b0 ,
b0 3
0-
b1010 4
b11111101 5
1.
b10 /
0#
b0 8
b11111100 '
b11111100 *
b11111100 0
b11111100 (
b11111100 )
b11111100 1
b0 7
b0 6
0&
#20
b1001 4
b1 8
b11111101 '
b11111101 *
b11111101 0
#30
b10 8
b11111110 '
b11111110 *
b11111110 0
#40
b11 8
b11111111 '
b11111111 *
b11111111 0
#50
b1 7
1&
b0 8
b11111100 '
b11111100 *
b11111100 0
#60
b1000 4
b1000000000 !
b1000000000 ,
b1000000000 3
b1 8
b11111101 '
b11111101 *
b11111101 0
#70
b10 8
b11111110 '
b11111110 *
b11111110 0
#80
b11 8
b11111111 '
b11111111 *
b11111111 0
#90
b10 7
0&
b0 8
b11111100 '
b11111100 *
b11111100 0
#100
b111 4
b100000000 !
b100000000 ,
b100000000 3
b1 8
b11111101 '
b11111101 *
b11111101 0
#110
b10 8
b11111110 '
b11111110 *
b11111110 0
#120
b11 8
b11111111 '
b11111111 *
b11111111 0
#130
b11 7
1&
b0 8
b11111100 '
b11111100 *
b11111100 0
#140
b110 4
b1010000000 !
b1010000000 ,
b1010000000 3
b1 8
b11111101 '
b11111101 *
b11111101 0
#150
b10 8
b11111110 '
b11111110 *
b11111110 0
#160
b11 8
b11111111 '
b11111111 *
b11111111 0
#170
b100 7
0&
b0 8
b11111100 '
b11111100 *
b11111100 0
#180
b101 4
b101000000 !
b101000000 ,
b101000000 3
b1 8
b11111101 '
b11111101 *
b11111101 0
#190
b10 8
b11111110 '
b11111110 *
b11111110 0
#200
b11 8
b11111111 '
b11111111 *
b11111111 0
#210
b101 7
1&
b0 8
b11111100 '
b11111100 *
b11111100 0
#220
b100 4
b1010100000 !
b1010100000 ,
b1010100000 3
b1 8
b11111101 '
b11111101 *
b11111101 0
#230
b10 8
b11111110 '
b11111110 *
b11111110 0
#240
b11 8
b11111111 '
b11111111 *
b11111111 0
#250
b110 7
0&
b0 8
b11111100 '
b11111100 *
b11111100 0
#260
b11 4
b101010000 !
b101010000 ,
b101010000 3
b1 8
b11111101 '
b11111101 *
b11111101 0
#270
b10 8
b11111110 '
b11111110 *
b11111110 0
#280
b11 8
b11111111 '
b11111111 *
b11111111 0
#290
b111 7
1&
b0 8
b11111100 '
b11111100 *
b11111100 0
#300
b10 4
b1010101000 !
b1010101000 ,
b1010101000 3
b1 8
b11111101 '
b11111101 *
b11111101 0
#310
b10 8
b11111110 '
b11111110 *
b11111110 0
#320
b11 8
b11111111 '
b11111111 *
b11111111 0
#330
b1000 7
0&
b0 8
b11111100 '
b11111100 *
b11111100 0
#340
b1 4
b101010100 !
b101010100 ,
b101010100 3
b1 8
b11111101 '
b11111101 *
b11111101 0
#350
b10 8
b11111110 '
b11111110 *
b11111110 0
#360
b11 8
b11111111 '
b11111111 *
b11111111 0
#370
b1001 7
1&
b0 8
b11111100 '
b11111100 *
b11111100 0
#380
b0 4
b1010101010 !
b1010101010 ,
b1010101010 3
b1 8
b11111101 '
b11111101 *
b11111101 0
#390
b11 /
0.
1#
1-
b1010101 "
b1010101 +
b1010101 2
b10 8
b11111110 '
b11111110 *
b11111110 0
#400
b11 8
b11111111 '
b11111111 *
b11111111 0
#410
b1 /
0#
0%
b1010 7
0&
b100 8
b0 '
b0 *
b0 0
#411
b0 "
b0 +
b0 2
b0 !
b0 ,
b0 3
0-
b1010 4
1.
b10 /
b0 8
b11111100 '
b11111100 *
b11111100 0
b0 7
b1 6
1%
#421
b1001 4
b1 8
b11111101 '
b11111101 *
b11111101 0
#431
b10 8
b11111110 '
b11111110 *
b11111110 0
#441
b11 8
b11111111 '
b11111111 *
b11111111 0
#451
b1 7
1&
b0 8
b11111100 '
b11111100 *
b11111100 0
#461
b1000 4
b1000000000 !
b1000000000 ,
b1000000000 3
b1 8
b11111101 '
b11111101 *
b11111101 0
#471
b10 8
b11111110 '
b11111110 *
b11111110 0
#481
b11 8
b11111111 '
b11111111 *
b11111111 0
#491
b10 7
0&
b0 8
b11111100 '
b11111100 *
b11111100 0
#501
b111 4
b100000000 !
b100000000 ,
b100000000 3
b1 8
b11111101 '
b11111101 *
b11111101 0
#511
b10 8
b11111110 '
b11111110 *
b11111110 0
#521
b11 8
b11111111 '
b11111111 *
b11111111 0
#531
b11 7
1&
b0 8
b11111100 '
b11111100 *
b11111100 0
#541
b110 4
b1010000000 !
b1010000000 ,
b1010000000 3
b1 8
b11111101 '
b11111101 *
b11111101 0
#551
b10 8
b11111110 '
b11111110 *
b11111110 0
#561
b11 8
b11111111 '
b11111111 *
b11111111 0
#571
b100 7
0&
b0 8
b11111100 '
b11111100 *
b11111100 0
#581
b101 4
b101000000 !
b101000000 ,
b101000000 3
b1 8
b11111101 '
b11111101 *
b11111101 0
#591
b10 8
b11111110 '
b11111110 *
b11111110 0
#601
b11 8
b11111111 '
b11111111 *
b11111111 0
#611
b101 7
1&
b0 8
b11111100 '
b11111100 *
b11111100 0
#621
b100 4
b1010100000 !
b1010100000 ,
b1010100000 3
b1 8
b11111101 '
b11111101 *
b11111101 0
#631
b10 8
b11111110 '
b11111110 *
b11111110 0
#641
b11 8
b11111111 '
b11111111 *
b11111111 0
#651
b110 7
0&
b0 8
b11111100 '
b11111100 *
b11111100 0
#661
b11 4
b101010000 !
b101010000 ,
b101010000 3
b1 8
b11111101 '
b11111101 *
b11111101 0
#671
b10 8
b11111110 '
b11111110 *
b11111110 0
#681
b11 8
b11111111 '
b11111111 *
b11111111 0
#691
b111 7
1&
b0 8
b11111100 '
b11111100 *
b11111100 0
#701
b10 4
b1010101000 !
b1010101000 ,
b1010101000 3
b1 8
b11111101 '
b11111101 *
b11111101 0
#711
b10 8
b11111110 '
b11111110 *
b11111110 0
#721
b11 8
b11111111 '
b11111111 *
b11111111 0
#731
b1000 7
0&
b0 8
b11111100 '
b11111100 *
b11111100 0
#741
b1 4
b101010100 !
b101010100 ,
b101010100 3
b1 8
b11111101 '
b11111101 *
b11111101 0
#751
b10 8
b11111110 '
b11111110 *
b11111110 0
#761
b11 8
b11111111 '
b11111111 *
b11111111 0
#771
b1001 7
1&
b0 8
b11111100 '
b11111100 *
b11111100 0
#781
b0 4
b1010101010 !
b1010101010 ,
b1010101010 3
b1 8
b11111101 '
b11111101 *
b11111101 0
#791
b11 /
0.
1#
1-
b1010101 "
b1010101 +
b1010101 2
b10 8
b11111110 '
b11111110 *
b11111110 0
#801
b11 8
b11111111 '
b11111111 *
b11111111 0
#811
b1 /
0#
0%
b1010 7
0&
b100 8
b0 '
b0 *
b0 0
#812
b0 "
b0 +
b0 2
b0 !
b0 ,
b0 3
0-
b1010 4
1.
b10 /
b0 8
b11111100 '
b11111100 *
b11111100 0
b0 7
b10 6
1%
#822
b1001 4
b1 8
b11111101 '
b11111101 *
b11111101 0
#832
b10 8
b11111110 '
b11111110 *
b11111110 0
#842
b11 8
b11111111 '
b11111111 *
b11111111 0
#852
b1 7
1&
b0 8
b11111100 '
b11111100 *
b11111100 0
#862
b1000 4
b1000000000 !
b1000000000 ,
b1000000000 3
b1 8
b11111101 '
b11111101 *
b11111101 0
#872
b10 8
b11111110 '
b11111110 *
b11111110 0
#882
b11 8
b11111111 '
b11111111 *
b11111111 0
#892
b10 7
0&
b0 8
b11111100 '
b11111100 *
b11111100 0
#902
b111 4
b100000000 !
b100000000 ,
b100000000 3
b1 8
b11111101 '
b11111101 *
b11111101 0
#912
b10 8
b11111110 '
b11111110 *
b11111110 0
#922
b11 8
b11111111 '
b11111111 *
b11111111 0
#932
b11 7
1&
b0 8
b11111100 '
b11111100 *
b11111100 0
#942
b110 4
b1010000000 !
b1010000000 ,
b1010000000 3
b1 8
b11111101 '
b11111101 *
b11111101 0
#952
b10 8
b11111110 '
b11111110 *
b11111110 0
#962
b11 8
b11111111 '
b11111111 *
b11111111 0
#972
b100 7
0&
b0 8
b11111100 '
b11111100 *
b11111100 0
#982
b101 4
b101000000 !
b101000000 ,
b101000000 3
b1 8
b11111101 '
b11111101 *
b11111101 0
#992
b10 8
b11111110 '
b11111110 *
b11111110 0
#1002
b11 8
b11111111 '
b11111111 *
b11111111 0
#1012
b101 7
1&
b0 8
b11111100 '
b11111100 *
b11111100 0
#1022
b100 4
b1010100000 !
b1010100000 ,
b1010100000 3
b1 8
b11111101 '
b11111101 *
b11111101 0
#1032
b10 8
b11111110 '
b11111110 *
b11111110 0
#1042
b11 8
b11111111 '
b11111111 *
b11111111 0
#1052
b110 7
0&
b0 8
b11111100 '
b11111100 *
b11111100 0
#1062
b11 4
b101010000 !
b101010000 ,
b101010000 3
b1 8
b11111101 '
b11111101 *
b11111101 0
#1072
b10 8
b11111110 '
b11111110 *
b11111110 0
#1082
b11 8
b11111111 '
b11111111 *
b11111111 0
#1092
b111 7
1&
b0 8
b11111100 '
b11111100 *
b11111100 0
#1102
b10 4
b1010101000 !
b1010101000 ,
b1010101000 3
b1 8
b11111101 '
b11111101 *
b11111101 0
#1112
b10 8
b11111110 '
b11111110 *
b11111110 0
#1122
b11 8
b11111111 '
b11111111 *
b11111111 0
#1132
b1000 7
0&
b0 8
b11111100 '
b11111100 *
b11111100 0
#1142
b1 4
b101010100 !
b101010100 ,
b101010100 3
b1 8
b11111101 '
b11111101 *
b11111101 0
#1152
b10 8
b11111110 '
b11111110 *
b11111110 0
#1162
b11 8
b11111111 '
b11111111 *
b11111111 0
#1172
b1001 7
1&
b0 8
b11111100 '
b11111100 *
b11111100 0
#1182
b0 4
b1010101010 !
b1010101010 ,
b1010101010 3
b1 8
b11111101 '
b11111101 *
b11111101 0
#1192
b11 /
0.
1#
1-
b1010101 "
b1010101 +
b1010101 2
b10 8
b11111110 '
b11111110 *
b11111110 0
#1202
b11 8
b11111111 '
b11111111 *
b11111111 0
#1212
b1 /
0#
0%
b1010 7
0&
b100 8
b0 '
b0 *
b0 0
#1213
b11 6
1%
