UART/VCD/RX/RXtop.vcd
$date
	Tue Jun  2 21:48:06 2026
$end
$version
	Icarus Verilog
$end
$timescale
	1s
$end
$scope module test_tb $end
$var wire 8 ! RXbuff [7:0] $end
$var wire 1 " RI $end
$var reg 1 # RE $end
$var reg 1 $ RIin $end
$var reg 1 % RX $end
$var reg 8 & timerCurrentVal [7:0] $end
$var reg 8 ' timerInitVal [7:0] $end
$scope module uut $end
$var wire 1 # RE $end
$var wire 1 $ RI_irq $end
$var wire 1 % RX $end
$var wire 8 ( initTimer [7:0] $end
$var wire 8 ) timer [7:0] $end
$var wire 8 * buffer [7:0] $end
$var wire 1 + RX_ckt_ready $end
$var reg 1 " RI $end
$var reg 1 , RX_ckt_enable $end
$var reg 2 - state [1:0] $end
$scope module R0 $end
$var wire 1 % RX $end
$var wire 1 , enableIN $end
$var wire 8 . timerCurrentVal [7:0] $end
$var wire 8 / timerInitVal [7:0] $end
$var reg 8 0 RXbuff [7:0] $end
$var reg 10 1 RXrawbuff [9:0] $end
$var reg 4 2 counter [3:0] $end
$var reg 1 + ready $end
$var reg 8 3 smplngTime [7:0] $end
$upscope $end
$upscope $end
$scope begin $ivl_for_loop0 $end
$var integer 32 4 k [31:0] $end
$scope begin $ivl_for_loop1 $end
$var integer 32 5 j [31:0] $end
$scope begin $ivl_for_loop2 $end
$var integer 32 6 i [31:0] $end
$upscope $end
$upscope $end
$upscope $end
$upscope $end
$enddefinitions $end
$comment Show the parameter values. $end
$dumpall
$end
#0
$dumpvars
bx 6
bx 5
bx 4
bx 3
bx 2
bx 1
bx 0
bx /
bx .
b0 -
x,
x+
bx *
bx )
bx (
bx '
bx &
x%
1$
1#
x"
bx !
$end
#10
b0 !
b0 *
b0 0
b0 1
0+
b1010 2
b11111101 3
1,
b10 -
0"
b0 6
b11111100 &
b11111100 )
b11111100 .
b11111100 '
b11111100 (
b11111100 /
b0 5
b0 4
0%
#20
b1001 2
b1 6
b11111101 &
b11111101 )
b11111101 .
#30
b10 6
b11111110 &
b11111110 )
b11111110 .
#40
b11 6
b11111111 &
b11111111 )
b11111111 .
#50
b1 5
1%
b0 6
b11111100 &
b11111100 )
b11111100 .
#60
b1000 2
b1000000000 1
b1 6
b11111101 &
b11111101 )
b11111101 .
#70
b10 6
b11111110 &
b11111110 )
b11111110 .
#80
b11 6
b11111111 &
b11111111 )
b11111111 .
#90
b10 5
0%
b0 6
b11111100 &
b11111100 )
b11111100 .
#100
b111 2
b100000000 1
b1 6
b11111101 &
b11111101 )
b11111101 .
#110
b10 6
b11111110 &
b11111110 )
b11111110 .
#120
b11 6
b11111111 &
b11111111 )
b11111111 .
#130
b11 5
1%
b0 6
b11111100 &
b11111100 )
b11111100 .
#140
b110 2
b1010000000 1
b1 6
b11111101 &
b11111101 )
b11111101 .
#150
b10 6
b11111110 &
b11111110 )
b11111110 .
#160
b11 6
b11111111 &
b11111111 )
b11111111 .
#170
b100 5
0%
b0 6
b11111100 &
b11111100 )
b11111100 .
#180
b101 2
b101000000 1
b1 6
b11111101 &
b11111101 )
b11111101 .
#190
b10 6
b11111110 &
b11111110 )
b11111110 .
#200
b11 6
b11111111 &
b11111111 )
b11111111 .
#210
b101 5
1%
b0 6
b11111100 &
b11111100 )
b11111100 .
#220
b100 2
b1010100000 1
b1 6
b11111101 &
b11111101 )
b11111101 .
#230
b10 6
b11111110 &
b11111110 )
b11111110 .
#240
b11 6
b11111111 &
b11111111 )
b11111111 .
#250
b110 5
0%
b0 6
b11111100 &
b11111100 )
b11111100 .
#260
b11 2
b101010000 1
b1 6
b11111101 &
b11111101 )
b11111101 .
#270
b10 6
b11111110 &
b11111110 )
b11111110 .
#280
b11 6
b11111111 &
b11111111 )
b11111111 .
#290
b111 5
1%
b0 6
b11111100 &
b11111100 )
b11111100 .
#300
b10 2
b1010101000 1
b1 6
b11111101 &
b11111101 )
b11111101 .
#310
b10 6
b11111110 &
b11111110 )
b11111110 .
#320
b11 6
b11111111 &
b11111111 )
b11111111 .
#330
b1000 5
0%
b0 6
b11111100 &
b11111100 )
b11111100 .
#340
b1 2
b101010100 1
b1 6
b11111101 &
b11111101 )
b11111101 .
#350
b10 6
b11111110 &
b11111110 )
b11111110 .
#360
b11 6
b11111111 &
b11111111 )
b11111111 .
#370
b1001 5
1%
b0 6
b11111100 &
b11111100 )
b11111100 .
#380
b0 2
b1010101010 1
b1 6
b11111101 &
b11111101 )
b11111101 .
#390
b11 -
0,
1"
1+
b1010101 !
b1010101 *
b1010101 0
b10 6
b11111110 &
b11111110 )
b11111110 .
#400
b11 6
b11111111 &
b11111111 )
b11111111 .
#410
b1 -
0"
0$
b1010 5
0%
b100 6
b0 &
b0 )
b0 .
#411
b0 !
b0 *
b0 0
b0 1
0+
b1010 2
1,
b10 -
b0 6
b11111100 &
b11111100 )
b11111100 .
b0 5
b1 4
1$
#421
b1001 2
b1 6
b11111101 &
b11111101 )
b11111101 .
#431
b10 6
b11111110 &
b11111110 )
b11111110 .
#441
b11 6
b11111111 &
b11111111 )
b11111111 .
#451
b1 5
1%
b0 6
b11111100 &
b11111100 )
b11111100 .
#461
b1000 2
b1000000000 1
b1 6
b11111101 &
b11111101 )
b11111101 .
#471
b10 6
b11111110 &
b11111110 )
b11111110 .
#481
b11 6
b11111111 &
b11111111 )
b11111111 .
#491
b10 5
0%
b0 6
b11111100 &
b11111100 )
b11111100 .
#501
b111 2
b100000000 1
b1 6
b11111101 &
b11111101 )
b11111101 .
#511
b10 6
b11111110 &
b11111110 )
b11111110 .
#521
b11 6
b11111111 &
b11111111 )
b11111111 .
#531
b11 5
1%
b0 6
b11111100 &
b11111100 )
b11111100 .
#541
b110 2
b1010000000 1
b1 6
b11111101 &
b11111101 )
b11111101 .
#551
b10 6
b11111110 &
b11111110 )
b11111110 .
#561
b11 6
b11111111 &
b11111111 )
b11111111 .
#571
b100 5
0%
b0 6
b11111100 &
b11111100 )
b11111100 .
#581
b101 2
b101000000 1
b1 6
b11111101 &
b11111101 )
b11111101 .
#591
b10 6
b11111110 &
b11111110 )
b11111110 .
#601
b11 6
b11111111 &
b11111111 )
b11111111 .
#611
b101 5
1%
b0 6
b11111100 &
b11111100 )
b11111100 .
#621
b100 2
b1010100000 1
b1 6
b11111101 &
b11111101 )
b11111101 .
#631
b10 6
b11111110 &
b11111110 )
b11111110 .
#641
b11 6
b11111111 &
b11111111 )
b11111111 .
#651
b110 5
0%
b0 6
b11111100 &
b11111100 )
b11111100 .
#661
b11 2
b101010000 1
b1 6
b11111101 &
b11111101 )
b11111101 .
#671
b10 6
b11111110 &
b11111110 )
b11111110 .
#681
b11 6
b11111111 &
b11111111 )
b11111111 .
#691
b111 5
1%
b0 6
b11111100 &
b11111100 )
b11111100 .
#701
b10 2
b1010101000 1
b1 6
b11111101 &
b11111101 )
b11111101 .
#711
b10 6
b11111110 &
b11111110 )
b11111110 .
#721
b11 6
b11111111 &
b11111111 )
b11111111 .
#731
b1000 5
0%
b0 6
b11111100 &
b11111100 )
b11111100 .
#741
b1 2
b101010100 1
b1 6
b11111101 &
b11111101 )
b11111101 .
#751
b10 6
b11111110 &
b11111110 )
b11111110 .
#761
b11 6
b11111111 &
b11111111 )
b11111111 .
#771
b1001 5
1%
b0 6
b11111100 &
b11111100 )
b11111100 .
#781
b0 2
b1010101010 1
b1 6
b11111101 &
b11111101 )
b11111101 .
#791
b11 -
0,
1"
1+
b1010101 !
b1010101 *
b1010101 0
b10 6
b11111110 &
b11111110 )
b11111110 .
#801
b11 6
b11111111 &
b11111111 )
b11111111 .
#811
b1 -
0"
0$
b1010 5
0%
b100 6
b0 &
b0 )
b0 .
#812
b0 !
b0 *
b0 0
b0 1
0+
b1010 2
1,
b10 -
b0 6
b11111100 &
b11111100 )
b11111100 .
b0 5
b10 4
1$
#822
b1001 2
b1 6
b11111101 &
b11111101 )
b11111101 .
#832
b10 6
b11111110 &
b11111110 )
b11111110 .
#842
b11 6
b11111111 &
b11111111 )
b11111111 .
#852
b1 5
1%
b0 6
b11111100 &
b11111100 )
b11111100 .
#862
b1000 2
b1000000000 1
b1 6
b11111101 &
b11111101 )
b11111101 .
#872
b10 6
b11111110 &
b11111110 )
b11111110 .
#882
b11 6
b11111111 &
b11111111 )
b11111111 .
#892
b10 5
0%
b0 6
b11111100 &
b11111100 )
b11111100 .
#902
b111 2
b100000000 1
b1 6
b11111101 &
b11111101 )
b11111101 .
#912
b10 6
b11111110 &
b11111110 )
b11111110 .
#922
b11 6
b11111111 &
b11111111 )
b11111111 .
#932
b11 5
1%
b0 6
b11111100 &
b11111100 )
b11111100 .
#942
b110 2
b1010000000 1
b1 6
b11111101 &
b11111101 )
b11111101 .
#952
b10 6
b11111110 &
b11111110 )
b11111110 .
#962
b11 6
b11111111 &
b11111111 )
b11111111 .
#972
b100 5
0%
b0 6
b11111100 &
b11111100 )
b11111100 .
#982
b101 2
b101000000 1
b1 6
b11111101 &
b11111101 )
b11111101 .
#992
b10 6
b11111110 &
b11111110 )
b11111110 .
#1002
b11 6
b11111111 &
b11111111 )
b11111111 .
#1012
b101 5
1%
b0 6
b11111100 &
b11111100 )
b11111100 .
#1022
b100 2
b1010100000 1
b1 6
b11111101 &
b11111101 )
b11111101 .
#1032
b10 6
b11111110 &
b11111110 )
b11111110 .
#1042
b11 6
b11111111 &
b11111111 )
b11111111 .
#1052
b110 5
0%
b0 6
b11111100 &
b11111100 )
b11111100 .
#1062
b11 2
b101010000 1
b1 6
b11111101 &
b11111101 )
b11111101 .
#1072
b10 6
b11111110 &
b11111110 )
b11111110 .
#1082
b11 6
b11111111 &
b11111111 )
b11111111 .
#1092
b111 5
1%
b0 6
b11111100 &
b11111100 )
b11111100 .
#1102
b10 2
b1010101000 1
b1 6
b11111101 &
b11111101 )
b11111101 .
#1112
b10 6
b11111110 &
b11111110 )
b11111110 .
#1122
b11 6
b11111111 &
b11111111 )
b11111111 .
#1132
b1000 5
0%
b0 6
b11111100 &
b11111100 )
b11111100 .
#1142
b1 2
b101010100 1
b1 6
b11111101 &
b11111101 )
b11111101 .
#1152
b10 6
b11111110 &
b11111110 )
b11111110 .
#1162
b11 6
b11111111 &
b11111111 )
b11111111 .
#1172
b1001 5
1%
b0 6
b11111100 &
b11111100 )
b11111100 .
#1182
b0 2
b1010101010 1
b1 6
b11111101 &
b11111101 )
b11111101 .
#1192
b11 -
0,
1"
1+
b1010101 !
b1010101 *
b1010101 0
b10 6
b11111110 &
b11111110 )
b11111110 .
#1202
b11 6
b11111111 &
b11111111 )
b11111111 .
#1212
b1 -
0"
0$
b1010 5
0%
b100 6
b0 &
b0 )
b0 .
#1213
b11 4
1$
