DMA/TXchannel/VCD/DMATX.vcd
$date
	Tue Jun 23 19:57:24 2026
$end
$version
	Icarus Verilog
$end
$timescale
	1s
$end
$scope module DMAchannelRX_tb $end
$var wire 1 ! half_buffer $end
$var wire 1 " full_buffer $end
$var wire 1 # error_reg $end
$var wire 1 $ enable_transfer $end
$var wire 1 % dir_transfer $end
$var wire 8 & data_w [7:0] $end
$var wire 8 ' addr_transfer_out [7:0] $end
$var wire 1 ( TI_in $end
$var wire 1 ) BUS_request $end
$var reg 1 * BUS_grant $end
$var reg 8 + RXbuff [7:0] $end
$var reg 1 , TI $end
$var reg 8 - data_r [7:0] $end
$var reg 1 . enable_DMA $end
$var reg 1 / error $end
$var reg 1 0 full_buffer_in $end
$var reg 1 1 half_buffer_in $end
$var reg 1 2 master_clk $end
$var reg 8 3 memory_buffer_offset [7:0] $end
$var reg 8 4 memory_start_address [7:0] $end
$var reg 1 5 ready_transfer $end
$scope module UUT $end
$var wire 1 * BUS_grant $end
$var wire 1 , TI $end
$var wire 8 6 addr_transfer_out [7:0] $end
$var wire 8 7 data_r [7:0] $end
$var wire 1 . enable_DMA $end
$var wire 1 / error $end
$var wire 1 0 full_buffer_in $end
$var wire 1 1 half_buffer_in $end
$var wire 1 2 master_clk $end
$var wire 8 8 memory_buffer_offset [7:0] $end
$var wire 8 9 memory_start_address [7:0] $end
$var wire 1 5 ready_transfer $end
$var wire 1 : half_buffer_internal $end
$var wire 1 ; full_buffer_internal $end
$var wire 8 < addr_transfer_internal [7:0] $end
$var reg 1 ) BUS_request $end
$var reg 8 = DATA [7:0] $end
$var reg 1 ( TI_in $end
$var reg 8 > data_w [7:0] $end
$var reg 1 % dir_transfer $end
$var reg 1 ? enable_addr_mng $end
$var reg 1 $ enable_transfer $end
$var reg 1 # error_reg $end
$var reg 1 " full_buffer $end
$var reg 1 ! half_buffer $end
$var reg 1 @ rst_fb $end
$var reg 1 A rst_hb $end
$var reg 3 B state [2:0] $end
$scope module uut $end
$var wire 1 ? enable $end
$var wire 1 . enable_DMA $end
$var wire 8 C memory_buffer_offset [7:0] $end
$var wire 8 D memory_start_address [7:0] $end
$var wire 1 @ rst_fb $end
$var wire 1 A rst_hb $end
$var wire 1 % rw $end
$var parameter 8 E peripheral_addr $end
$var reg 8 F addr [7:0] $end
$var reg 8 G current_addr [7:0] $end
$var reg 1 ; full_buffer $end
$var reg 1 : half_buffer $end
$var reg 8 H offset [7:0] $end
$var reg 8 I origin_addr [7:0] $end
$upscope $end
$upscope $end
$upscope $end
$enddefinitions $end
$comment Show the parameter values. $end
$dumpall
b10000010 E
$end
#0
$dumpvars
bx I
bx H
bx G
bx F
bx D
bx C
bx B
xA
x@
x?
bx >
bx =
bx <
x;
x:
bx 9
bx 8
bx 7
bx 6
15
bx 4
bx 3
02
x1
x0
x/
x.
bx -
0,
bx +
0*
x)
x(
bx '
bx &
x%
x$
x#
x"
x!
$end
#1
12
#2
02
#3
0"
0!
b0 B
b1000000 G
b100 H
b1000000 I
12
b100 3
b100 8
b100 C
b1000000 4
b1000000 9
b1000000 D
0.
#4
0;
0:
1(
1@
1A
0?
0)
0$
0#
02
1.
#5
b1 B
12
#6
02
#7
12
#8
02
1,
#9
b10 B
12
#10
02
#11
b1000001 G
b1000000 '
b1000000 6
b1000000 <
b1000000 F
b11 B
1)
1?
1%
12
#12
02
#13
0?
12
#14
02
#15
12
#16
02
1*
#17
05
1$
12
#18
02
#19
12
#20
02
#21
12
b10101110 -
b10101110 7
#22
02
#23
12
#24
02
#25
12
#26
02
#27
12
#28
02
15
#29
0*
b100 B
b10101110 =
0$
0)
12
#30
02
#31
b10000010 '
b10000010 6
b10000010 <
b10000010 F
b101 B
1)
1?
0%
12
#32
02
#33
0?
12
#34
02
#35
12
#36
02
1*
#37
05
1$
b10101110 &
b10101110 >
12
#38
02
#39
12
#40
02
#41
12
b10101110 +
#42
02
#43
12
#44
02
#45
12
#46
02
#47
12
#48
02
15
#49
0*
b110 B
0$
0(
0)
12
#50
02
#51
b1 B
12
#52
02
#53
b10 B
12
#54
02
#55
1:
b1000010 G
b1000001 '
b1000001 6
b1000001 <
b1000001 F
b11 B
1)
1?
1%
12
#56
02
#57
0?
12
#58
02
#59
12
#60
02
1*
#61
05
1$
12
#62
02
#63
12
#64
02
#65
12
b10001010 -
b10001010 7
#66
02
#67
12
#68
02
#69
12
#70
02
#71
12
#72
02
15
#73
0*
b100 B
b10001010 =
0$
0)
12
#74
02
#75
b10000010 '
b10000010 6
b10000010 <
b10000010 F
b101 B
1)
1?
0%
12
#76
02
#77
0?
12
#78
02
#79
12
#80
02
1*
#81
05
1$
b10001010 &
b10001010 >
12
#82
02
#83
12
#84
02
#85
12
b10001010 +
#86
02
#87
12
#88
02
#89
12
#90
02
#91
12
#92
02
15
#93
0*
b110 B
0$
0)
12
#94
02
#95
b1 B
1!
12
#96
02
#97
b10 B
12
#98
02
#99
b1000011 G
b1000010 '
b1000010 6
b1000010 <
b1000010 F
b11 B
1)
1?
1%
12
#100
02
#101
0?
12
#102
02
#103
12
#104
02
1*
#105
05
1$
12
#106
02
#107
12
#108
02
#109
12
b101010 -
b101010 7
#110
02
#111
12
#112
02
#113
12
#114
02
#115
12
#116
02
15
#117
0*
b100 B
b101010 =
0$
0)
12
#118
02
#119
b10000010 '
b10000010 6
b10000010 <
b10000010 F
b101 B
1)
1?
0%
12
#120
02
#121
0?
12
#122
02
#123
12
#124
02
1*
#125
05
1$
b101010 &
b101010 >
12
#126
02
#127
12
#128
02
#129
12
b101010 +
#130
02
#131
12
#132
02
#133
12
#134
02
#135
12
#136
02
15
#137
0*
b110 B
0$
0)
12
#138
02
#139
b1 B
12
#140
02
#141
b10 B
12
#142
02
#143
1;
b1000100 G
b1000011 '
b1000011 6
b1000011 <
b1000011 F
b11 B
1)
1?
1%
12
#144
02
#145
0?
12
#146
02
#147
12
#148
02
1*
#149
05
1$
12
#150
02
#151
12
#152
02
#153
12
b10111110 -
b10111110 7
#154
02
#155
12
#156
02
#157
12
#158
02
#159
12
#160
02
15
#161
0*
b100 B
b10111110 =
0$
0)
12
#162
02
#163
b10000010 '
b10000010 6
b10000010 <
b10000010 F
b101 B
1)
1?
0%
12
#164
02
#165
0?
12
#166
02
#167
12
#168
02
1*
#169
05
1$
b10111110 &
b10111110 >
12
#170
02
#171
12
#172
02
#173
12
b10111110 +
#174
02
#175
12
#176
02
#177
12
#178
02
#179
12
#180
02
15
#181
0*
b110 B
0$
0)
12
#182
02
#183
b111 B
1"
12
#184
02
#185
12
#186
02
#187
12
#188
02
#189
12
#190
02
#191
12
#192
02
#193
12
#194
02
#195
12
#196
02
#197
12
#198
02
#199
12
#200
02
#201
12
#202
02
#203
12
#204
02
#205
12
#206
02
#207
12
#208
0"
0!
b0 B
02
0.
#209
12
#210
b1000000 G
0;
0:
1(
02
1.
#211
b1 B
12
#212
02
#213
b10 B
12
#214
02
#215
b1000001 G
b1000000 '
b1000000 6
b1000000 <
b1000000 F
b11 B
1)
1?
1%
12
#216
02
#217
0?
12
#218
02
#219
12
#220
02
1*
#221
05
1$
12
#222
02
#223
12
#224
02
#225
12
b10101110 -
b10101110 7
