UART/VCD/TX/TXshift.vcd
$date
	Sun May 31 17:16:02 2026
$end
$version
	Icarus Verilog
$end
$timescale
	1s
$end
$scope module TXshift_tb $end
$var wire 1 ! TXshiftready $end
$var wire 1 " TX $end
$var reg 8 # TXbuff [7:0] $end
$var reg 1 $ TXshiftenable $end
$var reg 1 % clk $end
$var reg 8 & timenow [7:0] $end
$var reg 8 ' timerInitVal [7:0] $end
$scope module uut $end
$var wire 8 ( TXbuff [7:0] $end
$var wire 1 $ TXshiftenable $end
$var wire 1 % clk $end
$var wire 8 ) timerCurrentVal [7:0] $end
$var reg 1 " TX $end
$var reg 10 * TXbuffshift [9:0] $end
$var reg 1 ! TXshiftready $end
$var reg 4 + counter [3:0] $end
$var reg 1 , state $end
$var reg 8 - timeToShift [7:0] $end
$upscope $end
$upscope $end
$enddefinitions $end
$comment Show the parameter values. $end
$dumpall
$end
#0
$dumpvars
b11111101 -
0,
b1010 +
b1110010010 *
b11111101 )
b11001001 (
b11111101 '
b11111101 &
0%
1$
b11001001 #
1"
0!
$end
#1
b11111110 &
b11111110 )
1%
#2
0%
#3
b11111111 &
b11111111 )
1%
#4
0%
#5
b1001 +
b1111001001 *
0"
b11111101 &
b11111101 )
1%
#6
0%
#7
b11111110 &
b11111110 )
1%
#8
0%
#9
b11111111 &
b11111111 )
1%
#10
0%
#11
b1000 +
b1111100100 *
1"
b11111101 &
b11111101 )
1%
#12
0%
#13
b11111110 &
b11111110 )
1%
#14
0%
#15
b11111111 &
b11111111 )
1%
#16
0%
#17
b111 +
b1111110010 *
0"
b11111101 &
b11111101 )
1%
#18
0%
#19
b11111110 &
b11111110 )
1%
#20
0%
#21
b11111111 &
b11111111 )
1%
#22
0%
#23
b110 +
b1111111001 *
b11111101 &
b11111101 )
1%
#24
0%
#25
b11111110 &
b11111110 )
1%
#26
0%
#27
b11111111 &
b11111111 )
1%
#28
0%
#29
b101 +
b1111111100 *
1"
b11111101 &
b11111101 )
1%
#30
0%
#31
b11111110 &
b11111110 )
1%
#32
0%
#33
b11111111 &
b11111111 )
1%
#34
0%
#35
b100 +
b1111111110 *
0"
b11111101 &
b11111101 )
1%
#36
0%
#37
b11111110 &
b11111110 )
1%
#38
0%
#39
b11111111 &
b11111111 )
1%
#40
0%
#41
b11 +
b1111111111 *
b11111101 &
b11111101 )
1%
#42
0%
#43
b11111110 &
b11111110 )
1%
#44
0%
#45
b11111111 &
b11111111 )
1%
#46
0%
#47
b10 +
1"
b11111101 &
b11111101 )
1%
#48
0%
#49
b11111110 &
b11111110 )
1%
#50
0%
#51
b11111111 &
b11111111 )
1%
#52
0%
#53
b1 +
b11111101 &
b11111101 )
1%
#54
0%
#55
b11111110 &
b11111110 )
1%
#56
0%
#57
b11111111 &
b11111111 )
1%
#58
0%
#59
b0 +
b11111101 &
b11111101 )
1%
#60
0%
#61
b11111110 &
b11111110 )
1%
#62
0%
#63
b11111111 &
b11111111 )
1%
#64
0%
#65
0$
1!
b11111101 &
b11111101 )
1%
#66
0%
#67
b11111110 &
b11111110 )
1%
#68
0%
#69
b11111111 &
b11111111 )
1%
#70
0%
#71
b11111101 &
b11111101 )
1%
#72
0%
#73
b11111110 &
b11111110 )
1%
#74
0%
#75
b11111111 &
b11111111 )
1%
#76
0%
#77
b11111101 &
b11111101 )
1%
#78
0%
#79
b11111110 &
b11111110 )
1%
#80
0%
#81
b11111111 &
b11111111 )
1%
#82
0%
#83
b11111101 &
b11111101 )
1%
#84
0%
#85
b11111110 &
b11111110 )
1%
#86
0%
#87
b11111111 &
b11111111 )
1%
#88
0%
#89
b11111101 &
b11111101 )
1%
#90
0%
#91
b11111110 &
b11111110 )
1%
#92
0%
#93
b11111111 &
b11111111 )
1%
#94
0%
#95
b11111101 &
b11111101 )
1%
#96
0%
#97
b11111110 &
b11111110 )
1%
#98
0%
#99
b11111111 &
b11111111 )
1%
#100
0%
#101
b11111101 &
b11111101 )
1%
#102
0%
#103
b11111110 &
b11111110 )
1%
#104
0%
#105
b11111111 &
b11111111 )
1%
#106
0%
#107
b11111101 &
b11111101 )
1%
#108
0%
#109
b11111110 &
b11111110 )
1%
#110
0%
#111
b11111111 &
b11111111 )
1%
#112
0%
#113
b11111101 &
b11111101 )
1%
#114
0%
#115
b11111110 &
b11111110 )
1%
#116
0%
#117
b11111111 &
b11111111 )
1%
#118
0%
#119
b11111101 &
b11111101 )
1%
#120
0%
#121
b11111110 &
b11111110 )
1%
#122
0%
#123
b11111111 &
b11111111 )
1%
#124
0%
#125
b11111101 &
b11111101 )
1%
#126
0%
#127
b11111110 &
b11111110 )
1%
#128
0%
#129
b11111111 &
b11111111 )
1%
#130
0%
#131
b11111101 &
b11111101 )
1%
#132
0%
#133
b11111110 &
b11111110 )
1%
#134
0%
#135
b11111111 &
b11111111 )
1%
#136
0%
#137
b11111101 &
b11111101 )
1%
#138
0%
#139
b11111110 &
b11111110 )
1%
#140
0%
#141
b11111111 &
b11111111 )
1%
#142
0%
#143
b11111101 &
b11111101 )
1%
#144
0%
#145
b11111110 &
b11111110 )
1%
#146
0%
#147
b11111111 &
b11111111 )
1%
#148
0%
#149
b11111101 &
b11111101 )
1%
#150
0%
#151
b11111110 &
b11111110 )
1%
#152
0%
#153
b1010 +
b11111110 -
0!
b1000000000 *
b11111111 &
b11111111 )
1%
1$
b0 #
b0 (
#154
0%
#155
b11111101 &
b11111101 )
1%
#156
0%
#157
b1001 +
b1100000000 *
0"
b11111110 &
b11111110 )
1%
#158
0%
#159
b11111111 &
b11111111 )
1%
#160
0%
#161
b11111101 &
b11111101 )
1%
#162
0%
#163
b1000 +
b1110000000 *
b11111110 &
b11111110 )
1%
#164
0%
#165
b11111111 &
b11111111 )
1%
#166
0%
#167
b11111101 &
b11111101 )
1%
#168
0%
#169
b111 +
b1111000000 *
b11111110 &
b11111110 )
1%
#170
0%
#171
b11111111 &
b11111111 )
1%
#172
0%
#173
b11111101 &
b11111101 )
1%
#174
0%
#175
b110 +
b1111100000 *
b11111110 &
b11111110 )
1%
#176
0%
#177
b11111111 &
b11111111 )
1%
#178
0%
#179
b11111101 &
b11111101 )
1%
#180
0%
#181
b101 +
b1111110000 *
b11111110 &
b11111110 )
1%
#182
0%
#183
b11111111 &
b11111111 )
1%
#184
0%
#185
b11111101 &
b11111101 )
1%
#186
0%
#187
b100 +
b1111111000 *
b11111110 &
b11111110 )
1%
#188
0%
#189
b11111111 &
b11111111 )
1%
#190
0%
#191
b11111101 &
b11111101 )
1%
#192
0%
#193
b11 +
b1111111100 *
b11111110 &
b11111110 )
1%
#194
0%
#195
b11111111 &
b11111111 )
1%
#196
0%
#197
b11111101 &
b11111101 )
1%
#198
0%
#199
b10 +
b1111111110 *
b11111110 &
b11111110 )
1%
#200
0%
#201
b11111111 &
b11111111 )
1%
#202
0%
#203
b11111101 &
b11111101 )
1%
#204
0%
#205
b1 +
b1111111111 *
b11111110 &
b11111110 )
1%
#206
0%
#207
b11111111 &
b11111111 )
1%
#208
0%
#209
b11111101 &
b11111101 )
1%
#210
0%
#211
b0 +
1"
b11111110 &
b11111110 )
1%
#212
0%
#213
b11111111 &
b11111111 )
1%
#214
0%
#215
b11111101 &
b11111101 )
1%
#216
0%
#217
0$
1!
b11111110 &
b11111110 )
1%
#218
0%
#219
b11111111 &
b11111111 )
1%
#220
0%
#221
b11111101 &
b11111101 )
1%
#222
0%
#223
b11111110 &
b11111110 )
1%
#224
0%
#225
b11111111 &
b11111111 )
1%
#226
0%
#227
b11111101 &
b11111101 )
1%
#228
0%
#229
b11111110 &
b11111110 )
1%
#230
0%
#231
b11111111 &
b11111111 )
1%
#232
0%
#233
b11111101 &
b11111101 )
1%
#234
0%
#235
b11111110 &
b11111110 )
1%
#236
0%
#237
b11111111 &
b11111111 )
1%
#238
0%
#239
b11111101 &
b11111101 )
1%
#240
0%
#241
b11111110 &
b11111110 )
1%
#242
0%
#243
b11111111 &
b11111111 )
1%
#244
0%
#245
b11111101 &
b11111101 )
1%
#246
0%
#247
b11111110 &
b11111110 )
1%
#248
0%
#249
b11111111 &
b11111111 )
1%
#250
0%
#251
b11111101 &
b11111101 )
1%
#252
0%
#253
b11111110 &
b11111110 )
1%
#254
0%
#255
b11111111 &
b11111111 )
1%
#256
0%
#257
b11111101 &
b11111101 )
1%
#258
0%
#259
b11111110 &
b11111110 )
1%
#260
0%
#261
b11111111 &
b11111111 )
1%
#262
0%
#263
b11111101 &
b11111101 )
1%
#264
0%
#265
b11111110 &
b11111110 )
1%
#266
0%
#267
b11111111 &
b11111111 )
1%
#268
0%
#269
b11111101 &
b11111101 )
1%
#270
0%
#271
b11111110 &
b11111110 )
1%
#272
0%
#273
b11111111 &
b11111111 )
1%
#274
0%
#275
b11111101 &
b11111101 )
1%
#276
0%
#277
b11111110 &
b11111110 )
1%
#278
0%
#279
b11111111 &
b11111111 )
1%
#280
0%
#281
b11111101 &
b11111101 )
1%
#282
0%
#283
b11111110 &
b11111110 )
1%
#284
0%
#285
b11111111 &
b11111111 )
1%
#286
0%
#287
b11111101 &
b11111101 )
1%
#288
0%
#289
b11111110 &
b11111110 )
1%
#290
0%
#291
b11111111 &
b11111111 )
1%
#292
0%
#293
b11111101 &
b11111101 )
1%
#294
0%
#295
b11111110 &
b11111110 )
1%
#296
0%
#297
b11111111 &
b11111111 )
1%
#298
0%
#299
b11111101 &
b11111101 )
1%
#300
0%
#301
b11111110 &
b11111110 )
1%
#302
0%
#303
b11111111 &
b11111111 )
1%
#304
0%
#305
b11111101 &
b11111101 )
1%
#306
0%
#307
b11111110 &
b11111110 )
1%
#308
0%
#309
b11111111 &
b11111111 )
1%
#310
0%
#311
b11111101 &
b11111101 )
1%
#312
0%
#313
b11111110 &
b11111110 )
1%
#314
0%
#315
b11111111 &
b11111111 )
1%
#316
0%
#317
b11111101 &
b11111101 )
1%
#318
0%
#319
b11111110 &
b11111110 )
1%
#320
0%
#321
b11111111 &
b11111111 )
1%
#322
0%
#323
b11111101 &
b11111101 )
1%
#324
0%
#325
b11111110 &
b11111110 )
1%
#326
0%
#327
b11111111 &
b11111111 )
1%
#328
0%
#329
b11111101 &
b11111101 )
1%
#330
0%
#331
b11111110 &
b11111110 )
1%
#332
0%
#333
b11111111 &
b11111111 )
1%
#334
0%
#335
b11111101 &
b11111101 )
1%
#336
0%
#337
b11111110 &
b11111110 )
1%
#338
0%
#339
b11111111 &
b11111111 )
1%
#340
0%
#341
b11111101 &
b11111101 )
1%
#342
0%
#343
b11111110 &
b11111110 )
1%
#344
0%
#345
b11111111 &
b11111111 )
1%
#346
0%
#347
b11111101 &
b11111101 )
1%
#348
0%
#349
b11111110 &
b11111110 )
1%
#350
0%
#351
b11111111 &
b11111111 )
1%
#352
0%
#353
b11111101 &
b11111101 )
1%
