UART/VCD/TX/TXtop.vcd
$date
	Mon Jun  1 13:19:27 2026
$end
$version
	Icarus Verilog
$end
$timescale
	1s
$end
$scope module TXtop_tb $end
$var wire 1 ! TX $end
$var wire 1 " TI $end
$var reg 1 # TE $end
$var reg 1 $ TI_irq $end
$var reg 8 % TXbuff [7:0] $end
$var reg 1 & clk $end
$var reg 1 ' pwrite $end
$var reg 8 ( timerCurrentVal [7:0] $end
$var reg 8 ) timerInitVal [7:0] $end
$var integer 32 * count [31:0] $end
$scope module uut $end
$var wire 1 # TE $end
$var wire 1 $ TI_irq $end
$var wire 8 + TXbuff [7:0] $end
$var wire 1 & clk $end
$var wire 1 ' pwrite $end
$var wire 8 , timerCurrentVal [7:0] $end
$var wire 1 - TXshiftready $end
$var wire 1 ! TX $end
$var reg 1 " TI $end
$var reg 1 . TXCH $end
$var reg 1 / TXshiftenable $end
$var reg 2 0 state [1:0] $end
$scope module A1 $end
$var wire 8 1 TXbuff [7:0] $end
$var wire 1 / TXshiftenable $end
$var wire 1 & clk $end
$var wire 8 2 timerCurrentVal [7:0] $end
$var reg 1 ! TX $end
$var reg 10 3 TXbuffshift [9:0] $end
$var reg 1 - TXshiftready $end
$var reg 4 4 counter [3:0] $end
$var reg 8 5 timeToShift [7:0] $end
$upscope $end
$upscope $end
$upscope $end
$enddefinitions $end
$comment Show the parameter values. $end
$dumpall
$end
#0
$dumpvars
bx 5
bx 4
bx 3
bx 2
bx 1
bx 0
x/
x.
x-
bx ,
bx +
b0 *
bx )
bx (
x'
x&
bx %
x$
x#
x"
x!
$end
#1
1$
#2
0"
0$
#3
0/
b0 0
1#
0&
b11111110 (
b11111110 ,
b11111110 2
b11111101 )
1$
#4
1-
b1 0
1'
b11111111 (
b11111111 ,
b11111111 2
1&
#5
0&
#6
b11111101 (
b11111101 ,
b11111101 2
1&
#7
0&
b11101 %
b11101 +
b11101 1
#8
b11111110 (
b11111110 ,
b11111110 2
1&
#9
0&
#10
1.
0'
b11111111 (
b11111111 ,
b11111111 2
1&
#11
b10 0
0&
#12
1!
b1010 4
b11111101 5
0-
b1000111010 3
0.
1/
b11111101 (
b11111101 ,
b11111101 2
1&
#13
0&
#14
b11111110 (
b11111110 ,
b11111110 2
1&
#15
0&
#16
b11111111 (
b11111111 ,
b11111111 2
1&
#17
0&
#18
b1001 4
b1100011101 3
0!
b11111101 (
b11111101 ,
b11111101 2
1&
#19
0&
#20
b11111110 (
b11111110 ,
b11111110 2
1&
#21
0&
#22
b11111111 (
b11111111 ,
b11111111 2
1&
#23
0&
#24
b1000 4
b1110001110 3
1!
b11111101 (
b11111101 ,
b11111101 2
1&
#25
0&
#26
b11111110 (
b11111110 ,
b11111110 2
1&
#27
0&
#28
b11111111 (
b11111111 ,
b11111111 2
1&
#29
0&
#30
b111 4
b1111000111 3
0!
b11111101 (
b11111101 ,
b11111101 2
1&
#31
0&
#32
b11111110 (
b11111110 ,
b11111110 2
1&
#33
0&
#34
b11111111 (
b11111111 ,
b11111111 2
1&
#35
0&
#36
b110 4
b1111100011 3
1!
b11111101 (
b11111101 ,
b11111101 2
1&
#37
0&
#38
b11111110 (
b11111110 ,
b11111110 2
1&
#39
0&
#40
b11111111 (
b11111111 ,
b11111111 2
1&
#41
0&
#42
b101 4
b1111110001 3
b11111101 (
b11111101 ,
b11111101 2
1&
#43
0&
#44
b11111110 (
b11111110 ,
b11111110 2
1&
#45
0&
#46
1'
b11111111 (
b11111111 ,
b11111111 2
1&
#47
0&
b0 %
b0 +
b0 1
#48
1.
b100 4
b1111111000 3
0'
b11111101 (
b11111101 ,
b11111101 2
1&
#49
b1 0
0&
#50
0/
b10 0
b11111110 (
b11111110 ,
b11111110 2
1&
#51
b1010 4
b11111110 5
b1000000000 3
0.
1/
0&
#52
b11111111 (
b11111111 ,
b11111111 2
1&
#53
0&
#54
b11111101 (
b11111101 ,
b11111101 2
1&
#55
0&
#56
b1001 4
b1100000000 3
0!
b11111110 (
b11111110 ,
b11111110 2
1&
#57
0&
#58
b11111111 (
b11111111 ,
b11111111 2
1&
#59
0&
#60
b11111101 (
b11111101 ,
b11111101 2
1&
#61
0&
#62
b1000 4
b1110000000 3
b11111110 (
b11111110 ,
b11111110 2
1&
#63
0&
#64
b11111111 (
b11111111 ,
b11111111 2
1&
#65
0&
#66
b11111101 (
b11111101 ,
b11111101 2
1&
#67
0&
#68
b111 4
b1111000000 3
b11111110 (
b11111110 ,
b11111110 2
1&
#69
0&
#70
b11111111 (
b11111111 ,
b11111111 2
1&
#71
0&
#72
b11111101 (
b11111101 ,
b11111101 2
1&
#73
0&
#74
b110 4
b1111100000 3
b11111110 (
b11111110 ,
b11111110 2
1&
#75
0&
#76
b11111111 (
b11111111 ,
b11111111 2
1&
#77
0&
#78
b11111101 (
b11111101 ,
b11111101 2
1&
#79
0&
#80
b101 4
b1111110000 3
b11111110 (
b11111110 ,
b11111110 2
1&
#81
0&
#82
b11111111 (
b11111111 ,
b11111111 2
1&
#83
0&
#84
b11111101 (
b11111101 ,
b11111101 2
1&
#85
0&
#86
b100 4
b1111111000 3
b11111110 (
b11111110 ,
b11111110 2
1&
#87
0&
#88
b11111111 (
b11111111 ,
b11111111 2
1&
#89
0&
#90
b11111101 (
b11111101 ,
b11111101 2
1&
#91
0&
#92
b11 4
b1111111100 3
b11111110 (
b11111110 ,
b11111110 2
1&
#93
0&
#94
b11111111 (
b11111111 ,
b11111111 2
1&
#95
0&
#96
b11111101 (
b11111101 ,
b11111101 2
1&
#97
0&
#98
b10 4
b1111111110 3
b11111110 (
b11111110 ,
b11111110 2
1&
#99
0&
#100
b11111111 (
b11111111 ,
b11111111 2
1&
#101
0&
#102
b11111101 (
b11111101 ,
b11111101 2
1&
#103
0&
#104
b1 4
b1111111111 3
b11111110 (
b11111110 ,
b11111110 2
1&
#105
0&
#106
b11111111 (
b11111111 ,
b11111111 2
1&
#107
0&
#108
b11111101 (
b11111101 ,
b11111101 2
1&
#109
0&
#110
b0 4
1!
b11111110 (
b11111110 ,
b11111110 2
1&
#111
0&
#112
b11111111 (
b11111111 ,
b11111111 2
1&
#113
0&
#114
b11111101 (
b11111101 ,
b11111101 2
1&
#115
0&
#116
0/
1-
b11111110 (
b11111110 ,
b11111110 2
1&
#117
b1 0
1"
0&
#118
0"
b11111111 (
b11111111 ,
b11111111 2
1'
0$
1&
#119
0&
#120
b11111101 (
b11111101 ,
b11111101 2
1&
#121
1.
0&
b1 *
0'
#122
b10 0
b11111110 (
b11111110 ,
b11111110 2
1&
#123
b1010 4
0-
b1000000000 3
0.
1/
0&
#124
b11111111 (
b11111111 ,
b11111111 2
1&
#125
0&
#126
b11111101 (
b11111101 ,
b11111101 2
1&
1$
#127
0&
#128
b1001 4
b1100000000 3
0!
b11111110 (
b11111110 ,
b11111110 2
1&
#129
0&
#130
b11111111 (
b11111111 ,
b11111111 2
1&
#131
0&
#132
b11111101 (
b11111101 ,
b11111101 2
1&
#133
0&
#134
b1000 4
b1110000000 3
b11111110 (
b11111110 ,
b11111110 2
1&
#135
0&
#136
b11111111 (
b11111111 ,
b11111111 2
1&
#137
0&
#138
b11111101 (
b11111101 ,
b11111101 2
1&
#139
0&
#140
b111 4
b1111000000 3
b11111110 (
b11111110 ,
b11111110 2
1&
#141
0&
#142
b11111111 (
b11111111 ,
b11111111 2
1&
#143
0&
#144
b11111101 (
b11111101 ,
b11111101 2
1&
#145
0&
#146
b110 4
b1111100000 3
b11111110 (
b11111110 ,
b11111110 2
1&
#147
0&
#148
b11111111 (
b11111111 ,
b11111111 2
1&
#149
0&
#150
b11111101 (
b11111101 ,
b11111101 2
1&
#151
0&
#152
b101 4
b1111110000 3
b11111110 (
b11111110 ,
b11111110 2
1&
#153
0&
#154
b11111111 (
b11111111 ,
b11111111 2
1&
#155
0&
#156
b11111101 (
b11111101 ,
b11111101 2
1&
#157
0&
#158
b100 4
b1111111000 3
b11111110 (
b11111110 ,
b11111110 2
1&
#159
0&
#160
b11111111 (
b11111111 ,
b11111111 2
1&
#161
0&
#162
b11111101 (
b11111101 ,
b11111101 2
1&
#163
0&
#164
b11 4
b1111111100 3
b11111110 (
b11111110 ,
b11111110 2
1&
#165
0&
#166
b11111111 (
b11111111 ,
b11111111 2
1&
#167
0&
#168
b11111101 (
b11111101 ,
b11111101 2
1&
#169
0&
#170
b10 4
b1111111110 3
b11111110 (
b11111110 ,
b11111110 2
1&
#171
0&
#172
b11111111 (
b11111111 ,
b11111111 2
1&
#173
0&
#174
b11111101 (
b11111101 ,
b11111101 2
1&
#175
0&
#176
b1 4
b1111111111 3
b11111110 (
b11111110 ,
b11111110 2
1&
#177
0&
#178
b11111111 (
b11111111 ,
b11111111 2
1&
#179
0&
#180
b11111101 (
b11111101 ,
b11111101 2
1&
#181
0&
#182
b0 4
1!
b11111110 (
b11111110 ,
b11111110 2
1&
#183
0&
#184
b11111111 (
b11111111 ,
b11111111 2
1&
#185
0&
#186
b11111101 (
b11111101 ,
b11111101 2
1&
#187
0&
#188
0/
1-
b11111110 (
b11111110 ,
b11111110 2
1&
#189
b1 0
1"
0&
#190
0"
b11111111 (
b11111111 ,
b11111111 2
1'
0$
1&
#191
0&
#192
b11111101 (
b11111101 ,
b11111101 2
1&
#193
1.
0&
b10 *
0'
#194
b10 0
b11111110 (
b11111110 ,
b11111110 2
1&
#195
b1010 4
0-
b1000000000 3
0.
1/
0&
#196
b11111111 (
b11111111 ,
b11111111 2
1&
#197
0&
#198
b11111101 (
b11111101 ,
b11111101 2
1&
1$
#199
0&
#200
b1001 4
b1100000000 3
0!
b11111110 (
b11111110 ,
b11111110 2
1&
#201
0&
#202
b11111111 (
b11111111 ,
b11111111 2
1&
#203
0&
#204
b11111101 (
b11111101 ,
b11111101 2
1&
#205
0&
#206
b1000 4
b1110000000 3
b11111110 (
b11111110 ,
b11111110 2
1&
#207
0&
#208
b11111111 (
b11111111 ,
b11111111 2
1&
#209
0&
#210
b11111101 (
b11111101 ,
b11111101 2
1&
#211
0&
#212
b111 4
b1111000000 3
b11111110 (
b11111110 ,
b11111110 2
1&
#213
0&
#214
b11111111 (
b11111111 ,
b11111111 2
1&
#215
0&
#216
b11111101 (
b11111101 ,
b11111101 2
1&
#217
0&
#218
b110 4
b1111100000 3
b11111110 (
b11111110 ,
b11111110 2
1&
#219
0&
#220
b11111111 (
b11111111 ,
b11111111 2
1&
#221
0&
#222
b11111101 (
b11111101 ,
b11111101 2
1&
#223
0&
#224
b101 4
b1111110000 3
b11111110 (
b11111110 ,
b11111110 2
1&
#225
0&
#226
b11111111 (
b11111111 ,
b11111111 2
1&
#227
0&
#228
b11111101 (
b11111101 ,
b11111101 2
1&
#229
0&
#230
b100 4
b1111111000 3
b11111110 (
b11111110 ,
b11111110 2
1&
#231
0&
#232
b11111111 (
b11111111 ,
b11111111 2
1&
#233
0&
#234
b11111101 (
b11111101 ,
b11111101 2
1&
#235
0&
#236
b11 4
b1111111100 3
b11111110 (
b11111110 ,
b11111110 2
1&
#237
0&
#238
b11111111 (
b11111111 ,
b11111111 2
1&
